Getting Started in R an introduction to data visualisation
…
---
class: center, middle
.large[Creating a plot in R]

---
### `babynames`
Names of boys and girls born each year in the U.S. since 1880

```r
library(babynames)
babynames
```

```
## # A tibble: 1,858,689 x 5
##     year sex   name          n   prop
##    <dbl> <chr> <chr>     <int>  <dbl>
##  1 1880. F     Mary       7065 0.0724
##  2 1880. F     Anna       2604 0.0267
##  3 1880. F     Emma       2003 0.0205
##  4 1880. F     Elizabeth  1939 0.0199
##  5 1880. F     Minnie     1746 0.0179
##  6 1880. F     Margaret   1578 0.0162
##  7 1880. F     Ida        1472 0.0151
##  8 1880. F     Alice      1414 0.0145
##  9 1880. F     Bertha     1320 0.0135
## 10 1880. F     Sarah      1288 0.0132
## # ... with 1,858,679 more rows
```
…
.pull-right[

```
## # A tibble: 1,858,689 x 5
##     year sex   name          n   prop
##    <dbl> <chr> <chr>     <int>  <dbl>
##  1 1880. F     Mary       7065 0.0724
##  2 1880. F     Anna       2604 0.0267
##  3 1880. F     Emma       2003 0.0205
##  4 1880. F     Elizabeth  1939 0.0199
##  5 1880. F     Minnie     1746 0.0179
##  6 1880. F     Margaret   1578 0.0162
##  7 1880. F     Ida        1472 0.0151
##  8 1880. F     Alice      1414 0.0145
##  9 1880. F     Bertha     1320 0.0135
## 10 1880. F     Sarah      1288 0.0132
## # ... with 1,858,679 more rows
```
…
.pull-right[

```
## # A tibble: 185 x 5
##     year sex   name      n      prop
##    <dbl> <chr> <chr> <int>     <dbl>
##  1 1880. F     Mabel   808 0.00828  
##  2 1881. F     Mabel   893 0.00903  
##  3 1882. F     Mabel   997 0.00862  
##  4 1883. F     Mabel  1086 0.00905  
##  5 1883. M     Mabel     6 0.0000533
##  6 1884. F     Mabel  1270 0.00923  
##  7 1885. F     Mabel  1349 0.00950  
##  8 1885. M     Mabel     7 0.0000604
##  9 1886. F     Mabel  1422 0.00925  
## 10 1886. M     Mabel     6 0.0000504
## # ... with 175 more rows
```
…
